rtl/s64_tb.vcd
$date
	Sun Jun 28 05:25:49 2026
$end
$version
	Icarus Verilog
$end
$timescale
	1ps
$end
$scope module s64_tb $end
$var event 1 ! _ivl_2 $end
$var wire 1 " ibus_re $end
$var wire 32 # ibus_addr [31:0] $end
$var wire 1 $ halted $end
$var wire 4 % fault [3:0] $end
$var wire 1 & dbus_we $end
$var wire 32 ' dbus_wdata [31:0] $end
$var wire 1 ( dbus_re $end
$var wire 4 ) dbus_bsel [3:0] $end
$var wire 32 * dbus_addr [31:0] $end
$var reg 1 + clk $end
$var reg 32 , dbus_rdata [31:0] $end
$var reg 1 - dbus_ready $end
$var reg 32 . ibus_rdata [31:0] $end
$var reg 1 / ibus_ready $end
$var reg 1 0 rst $end
$var integer 32 1 cycle [31:0] $end
$scope module dut $end
$var wire 1 + clk $end
$var wire 32 2 dbus_rdata [31:0] $end
$var wire 1 - dbus_ready $end
$var wire 1 3 fwd_ex_en $end
$var wire 5 4 fwd_ex_rd [4:0] $end
$var wire 32 5 fwd_ex_val [31:0] $end
$var wire 1 6 fwd_mem_en $end
$var wire 5 7 fwd_mem_rd [4:0] $end
$var wire 32 8 fwd_mem_val [31:0] $end
$var wire 32 9 ibus_rdata [31:0] $end
$var wire 1 " ibus_re $end
$var wire 1 / ibus_ready $end
$var wire 1 0 rst $end
$var wire 1 : stall $end
$var wire 1 ; rf_wen $end
$var wire 32 < rf_wdata [31:0] $end
$var wire 5 = rf_waddr [4:0] $end
$var wire 32 > rf_rdata_b [31:0] $end
$var wire 32 ? rf_rdata_a [31:0] $end
$var wire 5 @ rf_raddr_b [4:0] $end
$var wire 5 A rf_raddr_a [4:0] $end
$var wire 1 B mem_wb_valid $end
$var wire 32 C mem_wb_result [31:0] $end
$var wire 5 D mem_wb_rd [4:0] $end
$var wire 32 E mem_wb_pc [31:0] $end
$var wire 8 F mem_wb_opcode [7:0] $end
$var wire 1 G mem_stall $end
$var wire 1 H if_id_valid $end
$var wire 32 I if_id_pc [31:0] $end
$var wire 32 J if_id_instr [31:0] $end
$var wire 1 K id_stall $end
$var wire 1 L id_ex_valid $end
$var wire 32 M id_ex_rs2_val [31:0] $end
$var wire 5 N id_ex_rs2 [4:0] $end
$var wire 32 O id_ex_rs1_val [31:0] $end
$var wire 5 P id_ex_rs1 [4:0] $end
$var wire 5 Q id_ex_rd [4:0] $end
$var wire 32 R id_ex_pc [31:0] $end
$var wire 8 S id_ex_opcode [7:0] $end
$var wire 1 T id_ex_m $end
$var wire 8 U id_ex_imm8 [7:0] $end
$var wire 32 V ibus_addr [31:0] $end
$var wire 1 $ halted $end
$var wire 32 W fwd_wb_val [31:0] $end
$var wire 5 X fwd_wb_rd [4:0] $end
$var wire 1 Y fwd_wb_en $end
$var wire 4 Z fault [3:0] $end
$var wire 1 [ ex_mem_valid $end
$var wire 32 \ ex_mem_rs1_val [31:0] $end
$var wire 5 ] ex_mem_rd [4:0] $end
$var wire 32 ^ ex_mem_pc [31:0] $end
$var wire 8 _ ex_mem_opcode [7:0] $end
$var wire 1 ` ex_mem_m $end
$var wire 1 a ex_mem_is_load $end
$var wire 8 b ex_mem_imm8 [7:0] $end
$var wire 32 c ex_mem_alu_result [31:0] $end
$var wire 1 & dbus_we $end
$var wire 32 d dbus_wdata [31:0] $end
$var wire 1 ( dbus_re $end
$var wire 4 e dbus_bsel [3:0] $end
$var wire 32 f dbus_addr [31:0] $end
$var wire 1 g branch_taken $end
$var wire 32 h branch_pc [31:0] $end
$scope module regfile $end
$var wire 1 + clk $end
$var wire 1 0 rst $end
$var wire 1 ; wen $end
$var wire 32 i wdata [31:0] $end
$var wire 5 j waddr [4:0] $end
$var wire 32 k rdata_b [31:0] $end
$var wire 32 l rdata_a [31:0] $end
$var wire 5 m raddr_b [4:0] $end
$var wire 5 n raddr_a [4:0] $end
$var integer 32 o i [31:0] $end
$upscope $end
$scope module stage_ex $end
$var wire 1 + clk $end
$var wire 1 3 fwd_ex_en $end
$var wire 5 p fwd_ex_rd [4:0] $end
$var wire 32 q fwd_ex_val [31:0] $end
$var wire 1 6 fwd_mem_en $end
$var wire 5 r fwd_mem_rd [4:0] $end
$var wire 32 s fwd_mem_val [31:0] $end
$var wire 1 t is_load $end
$var wire 1 u is_store $end
$var wire 1 0 rst $end
$var wire 32 v uimm8 [31:0] $end
$var wire 32 w simm8 [31:0] $end
$var wire 32 x rs2_raw [31:0] $end
$var wire 32 y rs1_val [31:0] $end
$var wire 32 z operand_b [31:0] $end
$var wire 32 { mem_addr [31:0] $end
$var wire 1 L id_ex_valid $end
$var wire 32 | id_ex_rs2_val [31:0] $end
$var wire 5 } id_ex_rs2 [4:0] $end
$var wire 32 ~ id_ex_rs1_val [31:0] $end
$var wire 5 !" id_ex_rs1 [4:0] $end
$var wire 5 "" id_ex_rd [4:0] $end
$var wire 32 #" id_ex_pc [31:0] $end
$var wire 8 $" id_ex_opcode [7:0] $end
$var wire 1 T id_ex_m $end
$var wire 8 %" id_ex_imm8 [7:0] $end
$var wire 1 &" alu_valid $end
$var wire 32 '" alu_result [31:0] $end
$var reg 32 (" branch_pc [31:0] $end
$var reg 1 g branch_taken $end
$var reg 32 )" ex_mem_alu_result [31:0] $end
$var reg 8 *" ex_mem_imm8 [7:0] $end
$var reg 1 a ex_mem_is_load $end
$var reg 1 ` ex_mem_m $end
$var reg 8 +" ex_mem_opcode [7:0] $end
$var reg 32 ," ex_mem_pc [31:0] $end
$var reg 5 -" ex_mem_rd [4:0] $end
$var reg 32 ." ex_mem_rs1_val [31:0] $end
$var reg 1 [ ex_mem_valid $end
$var reg 4 /" fault [3:0] $end
$scope module alu $end
$var wire 32 0" a [31:0] $end
$var wire 32 1" b [31:0] $end
$var wire 8 2" opcode [7:0] $end
$var reg 32 3" result [31:0] $end
$var reg 1 &" valid $end
$upscope $end
$upscope $end
$scope module stage_id $end
$var wire 1 + clk $end
$var wire 1 a ex_is_load $end
$var wire 5 4" ex_rd [4:0] $end
$var wire 1 g flush $end
$var wire 1 5" load_use_hazard $end
$var wire 5 6" rf_raddr_a [4:0] $end
$var wire 5 7" rf_raddr_b [4:0] $end
$var wire 32 8" rf_rdata_a [31:0] $end
$var wire 32 9" rf_rdata_b [31:0] $end
$var wire 1 0 rst $end
$var wire 1 K stall $end
$var wire 5 :" rs2 [4:0] $end
$var wire 5 ;" rs1 [4:0] $end
$var wire 5 <" rd [4:0] $end
$var wire 8 =" opcode [7:0] $end
$var wire 1 >" m $end
$var wire 8 ?" imm8 [7:0] $end
$var wire 1 H if_id_valid $end
$var wire 32 @" if_id_pc [31:0] $end
$var wire 32 A" if_id_instr [31:0] $end
$var reg 8 B" id_ex_imm8 [7:0] $end
$var reg 1 T id_ex_m $end
$var reg 8 C" id_ex_opcode [7:0] $end
$var reg 32 D" id_ex_pc [31:0] $end
$var reg 5 E" id_ex_rd [4:0] $end
$var reg 5 F" id_ex_rs1 [4:0] $end
$var reg 32 G" id_ex_rs1_val [31:0] $end
$var reg 5 H" id_ex_rs2 [4:0] $end
$var reg 32 I" id_ex_rs2_val [31:0] $end
$var reg 1 L id_ex_valid $end
$upscope $end
$scope module stage_if $end
$var wire 32 J" branch_pc [31:0] $end
$var wire 1 g branch_taken $end
$var wire 1 + clk $end
$var wire 1 g flush $end
$var wire 32 K" ibus_rdata [31:0] $end
$var wire 1 " ibus_re $end
$var wire 1 / ibus_ready $end
$var wire 1 0 rst $end
$var wire 1 : stall $end
$var reg 32 L" ibus_addr [31:0] $end
$var reg 32 M" if_id_instr [31:0] $end
$var reg 32 N" if_id_pc [31:0] $end
$var reg 1 H if_id_valid $end
$var reg 32 O" pc [31:0] $end
$upscope $end
$scope module stage_mem $end
$var wire 1 + clk $end
$var wire 32 P" dbus_rdata [31:0] $end
$var wire 1 - dbus_ready $end
$var wire 32 Q" ex_mem_alu_result [31:0] $end
$var wire 1 a ex_mem_is_load $end
$var wire 8 R" ex_mem_opcode [7:0] $end
$var wire 32 S" ex_mem_pc [31:0] $end
$var wire 5 T" ex_mem_rd [4:0] $end
$var wire 32 U" ex_mem_rs1_val [31:0] $end
$var wire 1 [ ex_mem_valid $end
$var wire 1 V" is_store $end
$var wire 1 G mem_stall $end
$var wire 1 0 rst $end
$var wire 32 W" load_result [31:0] $end
$var reg 32 X" dbus_addr [31:0] $end
$var reg 4 Y" dbus_bsel [3:0] $end
$var reg 1 ( dbus_re $end
$var reg 32 Z" dbus_wdata [31:0] $end
$var reg 1 & dbus_we $end
$var reg 8 [" mem_wb_opcode [7:0] $end
$var reg 32 \" mem_wb_pc [31:0] $end
$var reg 5 ]" mem_wb_rd [4:0] $end
$var reg 32 ^" mem_wb_result [31:0] $end
$var reg 1 B mem_wb_valid $end
$upscope $end
$scope module stage_wb $end
$var wire 1 + clk $end
$var wire 1 _" does_writeback $end
$var wire 1 Y fwd_wb_en $end
$var wire 5 `" fwd_wb_rd [4:0] $end
$var wire 32 a" fwd_wb_val [31:0] $end
$var wire 8 b" mem_wb_opcode [7:0] $end
$var wire 32 c" mem_wb_pc [31:0] $end
$var wire 5 d" mem_wb_rd [4:0] $end
$var wire 32 e" mem_wb_result [31:0] $end
$var wire 1 B mem_wb_valid $end
$var wire 1 0 rst $end
$var reg 1 $ halted $end
$var reg 5 f" rf_waddr [4:0] $end
$var reg 32 g" rf_wdata [31:0] $end
$var reg 1 ; rf_wen $end
$upscope $end
$upscope $end
$upscope $end
$enddefinitions $end
$comment Show the parameter values. $end
$dumpall
$end
#0
$dumpvars
bx g"
bx f"
bx e"
bx d"
bx c"
bx b"
bx a"
bx `"
x_"
bx ^"
bx ]"
bx \"
bx ["
bx Z"
bx Y"
bx X"
bx W"
xV"
bx U"
bx T"
bx S"
bx R"
bx Q"
bx P"
bx O"
bx N"
bx M"
bx L"
bx K"
bx J"
bx I"
bx H"
bx G"
bx F"
bx E"
bx D"
bx C"
bx B"
bx A"
bx @"
bx ?"
x>"
bx ="
bx <"
bx ;"
bx :"
bx 9"
bx 8"
bx 7"
bx 6"
x5"
bx 4"
bx 3"
bx 2"
bx 1"
bx 0"
bx /"
bx ."
bx -"
bx ,"
bx +"
bx *"
bx )"
bx ("
bx '"
x&"
bx %"
bx $"
bx #"
bx ""
bx !"
bx ~
bx }
bx |
bx {
bx z
bx y
bx x
bx w
b0xxxxxxxx v
xu
xt
bx s
bx r
bx q
bx p
bx o
bx n
bx m
bx l
bx k
bx j
bx i
bx h
xg
bx f
bx e
bx d
bx c
bx b
xa
x`
bx _
bx ^
bx ]
bx \
x[
bx Z
xY
bx X
bx W
bx V
bx U
xT
bx S
bx R
bx Q
bx P
bx O
bx N
bx M
xL
xK
bx J
bx I
xH
xG
bx F
bx E
bx D
bx C
xB
bx A
bx @
bx ?
bx >
bx =
bx <
x;
x:
bx 9
bx 8
bx 7
x6
bx 5
bx 4
x3
bx 2
bx 1
10
1/
bx .
x-
bx ,
0+
bx *
bx )
x(
bx '
x&
bx %
x$
bx #
1"
1!
$end
#10000
0:
0G
0V"
b0 >
b0 k
b0 9"
b0 ?
b0 l
b0 8"
05"
06
0Y
0K
0>"
b0 ?"
b0 @
b0 m
b0 7"
b0 :"
b0 A
b0 n
b0 6"
b0 ;"
b0 <"
b0 ="
b1001001000000000000000000010101 .
b1001001000000000000000000010101 9
b1001001000000000000000000010101 K"
b0 z
b0 1"
0u
0t
b0 '"
b0 3"
0&"
b0 %
b0 Z
b0 /"
b0 h
b0 ("
b0 J"
0g
03
b0 {
b0 y
b0 0"
b0 x
b1111 )
b1111 e
b1111 Y"
0(
0&
b0 '
b0 d
b0 Z"
b0 *
b0 f
b0 X"
0_"
0H
b0 J
b0 A"
b0 M"
b0 I
b0 @"
b0 N"
b1000000000000000 #
b1000000000000000 V
b1000000000000000 L"
b1000000000000000 O"
0L
0T
b0 v
b0 w
b0 U
b0 %"
b0 B"
b0 M
b0 |
b0 I"
b0 O
b0 ~
b0 G"
b0 N
b0 }
b0 H"
b0 P
b0 !"
b0 F"
b0 Q
b0 ""
b0 E"
b1100000 S
b1100000 $"
b1100000 2"
b1100000 C"
b0 R
b0 #"
b0 D"
0[
0a
0`
b0 b
b0 *"
b0 \
b0 ."
b0 U"
b0 5
b0 q
b0 c
b0 )"
b0 Q"
b0 4
b0 p
b0 ]
b0 -"
b0 4"
b0 T"
b1100000 _
b1100000 +"
b1100000 R"
b0 ^
b0 ,"
b0 S"
0B
b0 8
b0 s
b0 W
b0 a"
b0 C
b0 ^"
b0 e"
b0 7
b0 r
b0 X
b0 `"
b0 D
b0 ]"
b0 d"
b1100000 F
b1100000 ["
b1100000 b"
b0 E
b0 \"
b0 c"
0$
b0 <
b0 i
b0 g"
b0 =
b0 j
b0 f"
0;
b11111 o
1+
#20000
0+
#30000
b11111 o
1+
#40000
0+
#50000
b1001001000010000000000001000001 .
b1001001000010000000000001000001 9
b1001001000010000000000001000001 K"
1>"
b1010 ?"
b1001001 ="
1&"
b1000000000000100 #
b1000000000000100 V
b1000000000000100 L"
b1000000000000100 O"
1H
b1001001000000000000000000010101 J
b1001001000000000000000000010101 A"
b1001001000000000000000000010101 M"
b1000000000000000 I
b1000000000000000 @"
b1000000000000000 N"
b0 S
b0 $"
b0 2"
b0 C"
b0 1
00
1+
#60000
0+
#70000
b1010 '"
b1010 3"
b1010 z
b1010 1"
b100000000001000000000 .
b100000000001000000000 9
b100000000001000000000 K"
b100000 ?"
b1 <"
b0 _
b0 +"
b0 R"
1L
1T
b1010 {
b1010 v
b1010 w
b1010 U
b1010 %"
b1010 B"
b1001001 S
b1001001 $"
b1001001 2"
b1001001 C"
b1000000000000000 R
b1000000000000000 #"
b1000000000000000 D"
b1000000000001000 #
b1000000000001000 V
b1000000000001000 L"
b1000000000001000 O"
b1001001000010000000000001000001 J
b1001001000010000000000001000001 A"
b1001001000010000000000001000001 M"
b1000000000000100 I
b1000000000000100 @"
b1000000000000100 N"
b1 1
1+
#80000
0+
#90000
b1010 y
b1010 0"
b1010 x
b100000 '"
b100000 3"
13
b1100001000000000000000000000000 .
b1100001000000000000000000000000 9
b1100001000000000000000000000000 K"
0>"
b0 ?"
b1 @
b1 m
b1 7"
b1 :"
b10 <"
b0 ="
b100000 z
b100000 1"
b1010 *
b1010 f
b1010 X"
b1000000000001100 #
b1000000000001100 V
b1000000000001100 L"
b1000000000001100 O"
b100000000001000000000 J
b100000000001000000000 A"
b100000000001000000000 M"
b1000000000001000 I
b1000000000001000 @"
b1000000000001000 N"
b101010 {
b100000 v
b100000 w
b100000 U
b100000 %"
b100000 B"
b1 Q
b1 ""
b1 E"
b1000000000000100 R
b1000000000000100 #"
b1000000000000100 D"
1[
1`
b1010 b
b1010 *"
b1010 5
b1010 q
b1010 c
b1010 )"
b1010 Q"
b1001001 _
b1001001 +"
b1001001 R"
b1000000000000000 ^
b1000000000000000 ,"
b1000000000000000 S"
b0 F
b0 ["
b0 b"
b10 1
1+
#100000
0+
#110000
16
1Y
1_"
b1010 '
b1010 d
b1010 Z"
b100000 *
b100000 f
b100000 X"
b1010 y
b1010 0"
b100000 x
b100000 z
b100000 1"
b101010 '"
b101010 3"
b1100000000000000000000000000000 .
b1100000000000000000000000000000 9
b1100000000000000000000000000000 K"
b0 @
b0 m
b0 7"
b0 :"
b0 <"
b1100001 ="
1B
b1010 8
b1010 s
b1010 W
b1010 a"
b1010 C
b1010 ^"
b1010 e"
b1001001 F
b1001001 ["
b1001001 b"
b1000000000000000 E
b1000000000000000 \"
b1000000000000000 c"
b100000 b
b100000 *"
b1010 \
b1010 ."
b1010 U"
b100000 5
b100000 q
b100000 c
b100000 )"
b100000 Q"
b1 4
b1 p
b1 ]
b1 -"
b1 4"
b1 T"
b1000000000000100 ^
b1000000000000100 ,"
b1000000000000100 S"
0T
b1010 {
b0 v
b0 w
b0 U
b0 %"
b0 B"
b1 N
b1 }
b1 H"
b10 Q
b10 ""
b10 E"
b0 S
b0 $"
b0 2"
b0 C"
b1000000000001000 R
b1000000000001000 #"
b1000000000001000 D"
b1000000000010000 #
b1000000000010000 V
b1000000000010000 L"
b1000000000010000 O"
b1100001000000000000000000000000 J
b1100001000000000000000000000000 A"
b1100001000000000000000000000000 M"
b1000000000001100 I
b1000000000001100 @"
b1000000000001100 N"
b11 1
1+
#120000
0+
#130000
b0 z
b0 1"
b0 {
b0 y
b0 0"
b1100000 ="
0&"
b0 '"
b0 3"
b0 x
b101010 *
b101010 f
b101010 X"
b1000000000010100 #
b1000000000010100 V
b1000000000010100 L"
b1000000000010100 O"
b1100000000000000000000000000000 J
b1100000000000000000000000000000 A"
b1100000000000000000000000000000 M"
b1000000000010000 I
b1000000000010000 @"
b1000000000010000 N"
b0 N
b0 }
b0 H"
b0 Q
b0 ""
b0 E"
b1100001 S
b1100001 $"
b1100001 2"
b1100001 C"
b1000000000001100 R
b1000000000001100 #"
b1000000000001100 D"
0`
b0 b
b0 *"
b101010 5
b101010 q
b101010 c
b101010 )"
b101010 Q"
b10 4
b10 p
b10 ]
b10 -"
b10 4"
b10 T"
b0 _
b0 +"
b0 R"
b1000000000001000 ^
b1000000000001000 ,"
b1000000000001000 S"
b100000 8
b100000 s
b100000 W
b100000 a"
b100000 C
b100000 ^"
b100000 e"
b1 7
b1 r
b1 X
b1 `"
b1 D
b1 ]"
b1 d"
b1000000000000100 E
b1000000000000100 \"
b1000000000000100 c"
b1010 <
b1010 i
b1010 g"
1;
b100 1
1+
#140000
0+
#150000
b0 '
b0 d
b0 Z"
b0 *
b0 f
b0 X"
0&"
bx .
bx 9
bx K"
b1010 ?
b1010 l
b1010 8"
b1010 >
b1010 k
b1010 9"
b100000 <
b100000 i
b100000 g"
b1 =
b1 j
b1 f"
b101010 8
b101010 s
b101010 W
b101010 a"
b101010 C
b101010 ^"
b101010 e"
b10 7
b10 r
b10 X
b10 `"
b10 D
b10 ]"
b10 d"
b0 F
b0 ["
b0 b"
b1000000000001000 E
b1000000000001000 \"
b1000000000001000 c"
b0 \
b0 ."
b0 U"
b0 5
b0 q
b0 c
b0 )"
b0 Q"
b0 4
b0 p
b0 ]
b0 -"
b0 4"
b0 T"
b1100001 _
b1100001 +"
b1100001 R"
b1000000000001100 ^
b1000000000001100 ,"
b1000000000001100 S"
b1100000 S
b1100000 $"
b1100000 2"
b1100000 C"
b1000000000010000 R
b1000000000010000 #"
b1000000000010000 D"
b1000000000011000 #
b1000000000011000 V
b1000000000011000 L"
b1000000000011000 O"
b1000000000010100 I
b1000000000010100 @"
b1000000000010100 N"
b101 1
1+
#160000
0+
#170000
06
0Y
0_"
bx >
bx k
bx 9"
bx ?
bx l
bx 8"
x>"
bx ?"
bx @
bx m
bx 7"
bx :"
bx A
bx n
bx 6"
bx ;"
bx <"
bx ="
b1000000000011100 #
b1000000000011100 V
b1000000000011100 L"
b1000000000011100 O"
bx J
bx A"
bx M"
b1000000000011000 I
b1000000000011000 @"
b1000000000011000 N"
b1010 M
b1010 |
b1010 I"
b1010 O
b1010 ~
b1010 G"
b1000000000010100 R
b1000000000010100 #"
b1000000000010100 D"
b1100000 _
b1100000 +"
b1100000 R"
b1000000000010000 ^
b1000000000010000 ,"
b1000000000010000 S"
b0 8
b0 s
b0 W
b0 a"
b0 C
b0 ^"
b0 e"
b0 7
b0 r
b0 X
b0 `"
b0 D
b0 ]"
b0 d"
b1100001 F
b1100001 ["
b1100001 b"
b1000000000001100 E
b1000000000001100 \"
b1000000000001100 c"
b101010 <
b101010 i
b101010 g"
b10 =
b10 j
b10 f"
b110 1
1+
#180000
0+
#190000
06
0Y
0_"
bx x
bx y
bx 0"
bx z
bx 1"
xu
xt
0&"
1$
b0 <
b0 i
b0 g"
b0 =
b0 j
b0 f"
0;
b1100000 F
b1100000 ["
b1100000 b"
b1000000000010000 E
b1000000000010000 \"
b1000000000010000 c"
b1000000000010100 ^
b1000000000010100 ,"
b1000000000010100 S"
xT
bx {
b0xxxxxxxx v
bx w
bx U
bx %"
bx B"
bx M
bx |
bx I"
bx O
bx ~
bx G"
bx N
bx }
bx H"
bx P
bx !"
bx F"
bx Q
bx ""
bx E"
bx S
bx $"
bx 2"
bx C"
b1000000000011000 R
b1000000000011000 #"
b1000000000011000 D"
b1000000000100000 #
b1000000000100000 V
b1000000000100000 L"
b1000000000100000 O"
b1000000000011100 I
b1000000000011100 @"
b1000000000011100 N"
b111 1
1+
#200000
0+
#210000
x:
xK
x5"
x3
bx '
bx d
bx Z"
bx *
bx f
bx X"
xV"
b1000000000100100 #
b1000000000100100 V
b1000000000100100 L"
b1000000000100100 O"
b1000000000100000 I
b1000000000100000 @"
b1000000000100000 N"
b1000000000011100 R
b1000000000011100 #"
b1000000000011100 D"
xa
x`
bx b
bx *"
bx \
bx ."
bx U"
bx 5
bx q
bx c
bx )"
bx Q"
bx 4
bx p
bx ]
bx -"
bx 4"
bx T"
bx _
bx +"
bx R"
b1000000000011000 ^
b1000000000011000 ,"
b1000000000011000 S"
b1000000000010100 E
b1000000000010100 \"
b1000000000010100 c"
b1000 1
1+
#220000
0+
#230000
x6
xY
x_"
bx 8
bx s
bx W
bx a"
bx C
bx ^"
bx e"
bx 7
bx r
bx X
bx `"
bx D
bx ]"
bx d"
bx F
bx ["
bx b"
b1000000000011000 E
b1000000000011000 \"
b1000000000011000 c"
b1000000000011100 ^
b1000000000011100 ,"
b1000000000011100 S"
b1000000000100000 R
b1000000000100000 #"
b1000000000100000 D"
b1000000000101000 #
b1000000000101000 V
b1000000000101000 L"
b1000000000101000 O"
b1000000000100100 I
b1000000000100100 @"
b1000000000100100 N"
1+
